project7_Flip-flops and Latches/SR_latch.vcd
$date
	Tue Apr 12 14:51:43 2022
$end
$version
	Icarus Verilog
$end
$timescale
	1ps
$end
$scope module sr_latch_tb $end
$var wire 1 ! Qn $end
$var wire 1 " Q $end
$var reg 1 # R $end
$var reg 1 $ S $end
$scope module name $end
$var wire 1 " Q $end
$var wire 1 % Q_int $end
$var wire 1 ! Qn $end
$var wire 1 & Qn_int $end
$var wire 1 # R $end
$var wire 1 $ S $end
$upscope $end
$upscope $end
$enddefinitions $end
#0
$dumpvars
x&
x%
1$
1#
x"
x!
$end
#100000
0$
#101000
1"
1%
#102000
0!
0&
#200000
1$
#300000
0#
#301000
1!
1&
#302000
0"
0%
#400000
1#
#500000
0#
0$
#501000
1"
1%
#600000
1#
1$
#601000
0!
0&
0"
0%
#602000
1"
1%
1!
1&
#603000
0!
0&
0"
0%
#604000
1"
1%
1!
1&
#605000
0!
0&
0"
0%
#606000
1"
1%
1!
1&
#607000
0!
0&
0"
0%
#608000
1"
1%
1!
1&
#609000
0!
0&
0"
0%
#610000
1"
1%
1!
1&
#611000
0!
0&
0"
0%
#612000
1"
1%
1!
1&
#613000
0!
0&
0"
0%
#614000
1"
1%
1!
1&
#615000
0!
0&
0"
0%
#616000
1"
1%
1!
1&
#617000
0!
0&
0"
0%
#618000
1"
1%
1!
1&
#619000
0!
0&
0"
0%
#620000
1"
1%
1!
1&
#621000
0!
0&
0"
0%
#622000
1"
1%
1!
1&
#623000
0!
0&
0"
0%
#624000
1"
1%
1!
1&
#625000
0!
0&
0"
0%
#626000
1"
1%
1!
1&
#627000
0!
0&
0"
0%
#628000
1"
1%
1!
1&
#629000
0!
0&
0"
0%
#630000
1"
1%
1!
1&
#631000
0!
0&
0"
0%
#632000
1"
1%
1!
1&
#633000
0!
0&
0"
0%
#634000
1"
1%
1!
1&
#635000
0!
0&
0"
0%
#636000
1"
1%
1!
1&
#637000
0!
0&
0"
0%
#638000
1"
1%
1!
1&
#639000
0!
0&
0"
0%
#640000
1"
1%
1!
1&
#641000
0!
0&
0"
0%
#642000
1"
1%
1!
1&
#643000
0!
0&
0"
0%
#644000
1"
1%
1!
1&
#645000
0!
0&
0"
0%
#646000
1"
1%
1!
1&
#647000
0!
0&
0"
0%
#648000
1"
1%
1!
1&
#649000
0!
0&
0"
0%
#650000
1"
1%
1!
1&
#651000
0!
0&
0"
0%
#652000
1"
1%
1!
1&
#653000
0!
0&
0"
0%
#654000
1"
1%
1!
1&
#655000
0!
0&
0"
0%
#656000
1"
1%
1!
1&
#657000
0!
0&
0"
0%
#658000
1"
1%
1!
1&
#659000
0!
0&
0"
0%
#660000
1"
1%
1!
1&
#661000
0!
0&
0"
0%
#662000
1"
1%
1!
1&
#663000
0!
0&
0"
0%
#664000
1"
1%
1!
1&
#665000
0!
0&
0"
0%
#666000
1"
1%
1!
1&
#667000
0!
0&
0"
0%
#668000
1"
1%
1!
1&
#669000
0!
0&
0"
0%
#670000
1"
1%
1!
1&
#671000
0!
0&
0"
0%
#672000
1"
1%
1!
1&
#673000
0!
0&
0"
0%
#674000
1"
1%
1!
1&
#675000
0!
0&
0"
0%
#676000
1"
1%
1!
1&
#677000
0!
0&
0"
0%
#678000
1"
1%
1!
1&
#679000
0!
0&
0"
0%
#680000
1"
1%
1!
1&
#681000
0!
0&
0"
0%
#682000
1"
1%
1!
1&
#683000
0!
0&
0"
0%
#684000
1"
1%
1!
1&
#685000
0!
0&
0"
0%
#686000
1"
1%
1!
1&
#687000
0!
0&
0"
0%
#688000
1"
1%
1!
1&
#689000
0!
0&
0"
0%
#690000
1"
1%
1!
1&
#691000
0!
0&
0"
0%
#692000
1"
1%
1!
1&
#693000
0!
0&
0"
0%
#694000
1"
1%
1!
1&
#695000
0!
0&
0"
0%
#696000
1"
1%
1!
1&
#697000
0!
0&
0"
0%
#698000
1"
1%
1!
1&
#699000
0!
0&
0"
0%
#700000
1"
1%
1!
1&
0#
0$
